{
  "version": 2,
  "exports": {
    "Counting.Web.Frontend/1.0.0": {
      "type": "project",
      "framework": ".NETFramework,Version=v4.5.2",
      "compile": {
        "bin/Debug/Counting.Web.Frontend.dll": {}
      },
      "runtime": {
        "bin/Debug/Counting.Web.Frontend.dll": {}
      },
      "contentFiles": {
        "bin/Debug/Counting.Web.Frontend.pdb": {
          "buildAction": "None",
          "codeLanguage": "any",
          "copyToOutput": true
        }
      }
    }
  }
}